<?xml version="1.0" encoding="UTF-8" ?>
<testsuite tests="23" failures="0" name="be.kdg.distrib.TestStubFactory" time="0.142" errors="0" skipped="0">
  <properties>
    <property name="java.runtime.name" value="Java(TM) SE Runtime Environment"/>
    <property name="sun.boot.library.path" value="C:\eru-illuvatar\jdk\jre\bin"/>
    <property name="java.vm.version" value="25.121-b13"/>
    <property name="user.country.format" value="BE"/>
    <property name="java.vm.vendor" value="Oracle Corporation"/>
    <property name="maven.multiModuleProjectDirectory" value="C:\Users\ltlbu70\Documents\KdG\reflection_opgave"/>
    <property name="java.vendor.url" value="http://java.oracle.com/"/>
    <property name="path.separator" value=";"/>
    <property name="guice.disable.misplaced.annotation.check" value="true"/>
    <property name="java.vm.name" value="Java HotSpot(TM) 64-Bit Server VM"/>
    <property name="file.encoding.pkg" value="sun.io"/>
    <property name="user.script" value=""/>
    <property name="user.country" value="US"/>
    <property name="sun.java.launcher" value="SUN_STANDARD"/>
    <property name="sun.os.patch.level" value=""/>
    <property name="java.vm.specification.name" value="Java Virtual Machine Specification"/>
    <property name="user.dir" value="C:\Users\ltlbu70\Documents\KdG\reflection_opgave"/>
    <property name="java.runtime.version" value="1.8.0_121-b13"/>
    <property name="java.awt.graphicsenv" value="sun.awt.Win32GraphicsEnvironment"/>
    <property name="java.endorsed.dirs" value="C:\eru-illuvatar\jdk\jre\lib\endorsed"/>
    <property name="os.arch" value="amd64"/>
    <property name="java.io.tmpdir" value="C:\Users\ltlbu70\AppData\Local\Temp\"/>
    <property name="line.separator" value="
"/>
    <property name="java.vm.specification.vendor" value="Oracle Corporation"/>
    <property name="user.variant" value=""/>
    <property name="os.name" value="Windows 10"/>
    <property name="maven.ext.class.path" value="C:\Program Files\JetBrains\IntelliJ IDEA 2019.2.3\plugins\maven\lib\maven-event-listener.jar"/>
    <property name="classworlds.conf" value="C:\Program Files\JetBrains\IntelliJ IDEA 2019.2.3\plugins\maven\lib\maven3\bin\m2.conf"/>
    <property name="sun.jnu.encoding" value="Cp1252"/>
    <property name="java.library.path" value="C:\eru-illuvatar\jdk\bin;C:\WINDOWS\Sun\Java\bin;C:\WINDOWS\system32;C:\WINDOWS;C:\Program Files (x86)\Common Files\Oracle\Java\javapath;C:\WINDOWS\system32;C:\WINDOWS;C:\WINDOWS\System32\Wbem;C:\WINDOWS\System32\WindowsPowerShell\v1.0\;C:\WINDOWS\System32\OpenSSH\;C:\Windows\CCM;C:\Program Files\Git\cmd;C:\eru-illuvatar\jdk\bin;C:\Program Files\nodejs\;C:\spring-2.2.2.RELEASE\bin;C:\Users\ltlbu70\AppData\Local\Microsoft\WindowsApps;C:\Users\ltlbu70\AppData\Local\atom\bin;C:\Program Files\JetBrains\IntelliJ IDEA Community Edition 2019.2.3\bin;;C:\Program Files\JetBrains\IntelliJ IDEA 2019.2.3\bin;;C:\eru-illuvatar\jdk\bin;C:\Users\ltlbu70\AppData\Roaming\npm;C:\Users\ltlbu70\AppData\Local\Programs\Microsoft VS Code\bin;C:\spring-2.2.2.RELEASE\bin;;."/>
    <property name="maven.conf" value="C:\Program Files\JetBrains\IntelliJ IDEA 2019.2.3\plugins\maven\lib\maven3/conf"/>
    <property name="java.specification.name" value="Java Platform API Specification"/>
    <property name="java.class.version" value="52.0"/>
    <property name="sun.management.compiler" value="HotSpot 64-Bit Tiered Compilers"/>
    <property name="os.version" value="10.0"/>
    <property name="user.home" value="C:\Users\ltlbu70"/>
    <property name="user.timezone" value="Europe/Paris"/>
    <property name="java.awt.printerjob" value="sun.awt.windows.WPrinterJob"/>
    <property name="java.specification.version" value="1.8"/>
    <property name="file.encoding" value="UTF-8"/>
    <property name="user.name" value="LTLBU70"/>
    <property name="java.class.path" value="C:\Program Files\JetBrains\IntelliJ IDEA 2019.2.3\plugins\maven\lib\maven3\boot\plexus-classworlds-2.6.0.jar;C:\Program Files\JetBrains\IntelliJ IDEA 2019.2.3\lib\idea_rt.jar"/>
    <property name="idea.version2019.2.3" value="true"/>
    <property name="java.vm.specification.version" value="1.8"/>
    <property name="sun.arch.data.model" value="64"/>
    <property name="java.home" value="C:\eru-illuvatar\jdk\jre"/>
    <property name="sun.java.command" value="org.codehaus.classworlds.Launcher -Didea.version2019.2.3 install"/>
    <property name="java.specification.vendor" value="Oracle Corporation"/>
    <property name="user.language" value="en"/>
    <property name="user.language.format" value="nl"/>
    <property name="awt.toolkit" value="sun.awt.windows.WToolkit"/>
    <property name="java.vm.info" value="mixed mode"/>
    <property name="java.version" value="1.8.0_121"/>
    <property name="java.ext.dirs" value="C:\eru-illuvatar\jdk\jre\lib\ext;C:\WINDOWS\Sun\Java\lib\ext"/>
    <property name="sun.boot.class.path" value="C:\eru-illuvatar\jdk\jre\lib\resources.jar;C:\eru-illuvatar\jdk\jre\lib\rt.jar;C:\eru-illuvatar\jdk\jre\lib\sunrsasign.jar;C:\eru-illuvatar\jdk\jre\lib\jsse.jar;C:\eru-illuvatar\jdk\jre\lib\jce.jar;C:\eru-illuvatar\jdk\jre\lib\charsets.jar;C:\eru-illuvatar\jdk\jre\lib\jfr.jar;C:\eru-illuvatar\jdk\jre\classes"/>
    <property name="java.vendor" value="Oracle Corporation"/>
    <property name="maven.home" value="C:\Program Files\JetBrains\IntelliJ IDEA 2019.2.3\plugins\maven\lib\maven3"/>
    <property name="file.separator" value="\"/>
    <property name="java.vendor.url.bug" value="http://bugreport.sun.com/bugreport/"/>
    <property name="sun.cpu.endian" value="little"/>
    <property name="sun.io.unicode.encoding" value="UnicodeLittle"/>
    <property name="sun.desktop" value="windows"/>
    <property name="sun.cpu.isalist" value="amd64"/>
  </properties>
  <testcase classname="be.kdg.distrib.TestStubFactory" name="testCreateClassWithRightMethods" time="0.001"/>
  <testcase classname="be.kdg.distrib.TestStubFactory" name="testWithStringReturnValue" time="0.004"/>
  <testcase classname="be.kdg.distrib.TestStubFactory" name="testWithBooleanReturnValue2" time="0.007"/>
  <testcase classname="be.kdg.distrib.TestStubFactory" name="testVoidVoid" time="0.007"/>
  <testcase classname="be.kdg.distrib.TestStubFactory" name="testTryToCastToWrongClass" time="0.002"/>
  <testcase classname="be.kdg.distrib.TestStubFactory" name="testWithMoreParams" time="0.009"/>
  <testcase classname="be.kdg.distrib.TestStubFactory" name="testWithIntParam" time="0.007"/>
  <testcase classname="be.kdg.distrib.TestStubFactory" name="testWithIntReturnValue2" time="0.005"/>
  <testcase classname="be.kdg.distrib.TestStubFactory" name="testWithStringReturnValue2" time="0.006"/>
  <testcase classname="be.kdg.distrib.TestStubFactory" name="testWithEverything" time="0.014"/>
  <testcase classname="be.kdg.distrib.TestStubFactory" name="testCreateClassWithDerivedInterface" time="0.006"/>
  <testcase classname="be.kdg.distrib.TestStubFactory" name="testWithCharReturnValue2" time="0.006"/>
  <testcase classname="be.kdg.distrib.TestStubFactory" name="testWithCharReturnValue" time="0.006"/>
  <testcase classname="be.kdg.distrib.TestStubFactory" name="testWithObjectParams2" time="0.006"/>
  <testcase classname="be.kdg.distrib.TestStubFactory" name="testWithIntReturnValue" time="0.006"/>
  <testcase classname="be.kdg.distrib.TestStubFactory" name="testWithObjectReturnValue" time="0.012"/>
  <testcase classname="be.kdg.distrib.TestStubFactory" name="testWithObjectReturnValue2" time="0.006"/>
  <testcase classname="be.kdg.distrib.TestStubFactory" name="testWithObjectReturnValue3" time="0.006"/>
  <testcase classname="be.kdg.distrib.TestStubFactory" name="testCreateClassFromOtherInterface" time="0.007"/>
  <testcase classname="be.kdg.distrib.TestStubFactory" name="testWithOneParam" time="0.007"/>
  <testcase classname="be.kdg.distrib.TestStubFactory" name="testCreateStubFromObject" time="0"/>
  <testcase classname="be.kdg.distrib.TestStubFactory" name="testWithBooleanReturnValue" time="0.005"/>
  <testcase classname="be.kdg.distrib.TestStubFactory" name="testWithObjectParams" time="0.007"/>
</testsuite>